module be-test-kitalulus

go 1.15

require (
	github.com/gin-gonic/gin v1.6.3
	github.com/go-playground/validator/v10 v10.4.1 // indirect
	github.com/golang/protobuf v1.4.3 // indirect
	github.com/google/uuid v1.1.2
	github.com/jinzhu/gorm v1.9.16
	github.com/json-iterator/go v1.1.10 // indirect
	github.com/modern-go/concurrent v0.0.0-20180306012644-bacd9c7ef1dd // indirect
	github.com/modern-go/reflect2 v1.0.1 // indirect
	github.com/ugorji/go v1.2.0 // indirect
	golang.org/x/crypto v0.0.0-20201124201722-c8d3bf9c5392 // indirect
	golang.org/x/sys v0.0.0-20201201145000-ef89a241ccb3 // indirect
	google.golang.org/protobuf v1.25.0 // indirect
	gopkg.in/go-playground/validator.v8 v8.18.2
	gopkg.in/yaml.v2 v2.4.0 // indirect
)
